(isalomedd4aster.prepareSubStructuring
SubStructuredMesh
p1
(dp2
S'dim'
p3
I3
sS'group'
p4
(dp5
sS'rootResDir'
p6
S'/usrtmp/oumaziz/'
p7
sS'neighbourSD'
p8
(dp9
I3
(lp10
I0
aI1
aI2
aI4
aI5
aI6
aI7
aI8
aI9
assS'nameStudy'
p11
S'demo_schwarz'
p12
sS'numberSubDomain'
p13
I10
sS'directory'
p14
S'/usrtmp/oumaziz/demo_schwarz/Prepare/'
p15
sS'resPrepare'
p16
S'/u/oumaziz/dev/latindd4py/latindd4py/tests/Prepare/demo_schwarz/Prepare/'
p17
sS'numberDirichlet'
p18
I3
sS'numberNeumann'
p19
I1
sS'neighbourNeum'
p20
(dp21
I3
(lp22
I0
assS'method'
p23
S'asm'
p24
sS'neighbourDiri'
p25
(dp26
I3
(lp27
ssb.